[
	[{
			"desc": "IPv4 address",
			"modifiable": true,
			"filterOps": [{
					"logicalOr": false,
					"filterOps": [{
							"op": "=",
							"path": "src.ip",
							"logicalOr": true
						}, {
							"op": "=",
							"path": "dst.ip",
							"logicalOr": true
						}
					]
				}
			]
		}, {
			"desc": "NOT IPv4 address",
			"modifiable": true,
			"filterOps": [{
					"logicalOr": false,
					"filterOps": [{
							"op": "!",
							"path": "src.ip",
							"logicalOr": false
						}, {
							"op": "!",
							"path": "dst.ip",
							"logicalOr": false
						}
					]
				}
			]
		}
	],
	[{
			"desc": "Web",
			"filterOps": [{
					"logicalOr": false,
					"filterOps": [{
							"logicalOr": true,
							"filterOps": [{
									"op": "=",
									"val": 80,
									"path": "dst.port",
									"logicalOr": true
								}, {
									"op": "=",
									"path": "dst.port",
									"val": 443,
									"logicalOr": true
								}
							]
						}, {
							"logicalOr": true,
							"filterOps": [{
									"op": "=",
									"val": 80,
									"path": "src.port",
									"logicalOr": true
								}, {
									"op": "=",
									"val": 443,
									"path": "src.port",
									"logicalOr": true
								}
							]
						}
					]
				}
			]
		}, {
			"desc": "Not Web",
			"filterOps": [{
					"logicalOr": false,
					"filterOps": [{
							"logicalOr": false,
							"filterOps": [{
									"op": "!",
									"val": 80,
									"path": "dst.port",
									"logicalOr": false
								}, {
									"op": "!",
									"path": "dst.port",
									"val": 443,
									"logicalOr": false
								}
							]
						}, {
							"logicalOr": false,
							"filterOps": [{
									"op": "!",
									"val": 80,
									"path": "src.port",
									"logicalOr": false
								}, {
									"op": "!",
									"val": 443,
									"path": "src.port",
									"logicalOr": false
								}
							]
						}
					]
				}
			]
		}, {
			"desc": "Custom Port",
			"modifiable": true,
			"filterOps": [{
					"logicalOr": false,
					"filterOps": [{
							"op": "=",
							"path": "src.port",
							"logicalOr": true
						}, {
							"op": "=",
							"path": "dst.port",
							"logicalOr": true
						}
					]
				}
			]
		}, {
			"desc": "Custom NOT Port",
			"modifiable": true,
			"filterOps": [{
					"logicalOr": false,
					"filterOps": [{
							"op": "!",
							"path": "src.port",
							"logicalOr": false
						}, {
							"op": "!",
							"path": "dst.port",
							"logicalOr": false
						}
					]
				}
			]
		}
	],
	[{
			"desc": "> 5MB",
			"filterOps": [{
					"op": ">",
					"val": 5000000,
					"path": "totalbytes"
				}
			]
		}, {
			"desc": "> 50MB",
			"filterOps": [{
					"op": ">",
					"val": 50000000,
					"path": "totalbytes"
				}
			]
		}, {
			"desc": "< 10KB",
			"filterOps": [{
					"op": "<",
					"val": 10000,
					"path": "totalbytes"
				}
			]
		}, {
			"desc": "< 10MB",
			"filterOps": [{
					"op": "<",
					"val": 10000000,
					"path": "totalbytes"
				}
			]
		}, {
			"desc": "< Custom",
			"modifiable": true,
			"filterOps": [{
					"op": "<",
					"path": "totalbytes"
				}
			]
		}, {
			"desc": "> Custom",
			"modifiable": true,
			"filterOps": [{
					"op": ">",
					"path": "totalbytes"
				}
			]
		}
	]
]